verilog/pixelSensor_tb.vcd
$date
	Sun Nov 14 19:01:13 2021
$end
$version
	Icarus Verilog
$end
$timescale
	1ps
$end
$scope module pixelSensor_tb $end
$var wire 1 ! anaReset $end
$var wire 8 " out_data [7:0] $end
$var wire 8 # pixData [7:0] $end
$var wire 1 $ anaRamp $end
$var wire 1 % anaBias1 $end
$var reg 8 & array_data [7:0] $end
$var reg 1 ' clk $end
$var reg 1 ( convert $end
$var reg 8 ) data [7:0] $end
$var reg 1 * erase $end
$var reg 1 + expose $end
$var reg 3 , next_state [2:0] $end
$var reg 8 - pixelDataOut [7:0] $end
$var reg 1 . read $end
$var reg 1 / reset $end
$var reg 1 0 row_pointer $end
$var reg 3 1 state [2:0] $end
$var integer 32 2 c_row [31:0] $end
$var integer 32 3 counter [31:0] $end
$scope module pa $end
$var wire 1 ' clk $end
$var wire 1 * erase $end
$var wire 1 + expose $end
$var wire 1 $ ramp $end
$var wire 1 . read $end
$var wire 1 ! reset $end
$var wire 1 0 row_pointer $end
$var wire 1 % vbn1 $end
$var reg 8 4 out_data [7:0] $end
$var integer 32 5 c_column [31:0] $end
$var integer 32 6 i [31:0] $end
$var integer 32 7 k [31:0] $end
$scope module ps00 $end
$var wire 1 * ERASE $end
$var wire 1 + EXPOSE $end
$var wire 1 $ RAMP $end
$var wire 1 . READ $end
$var wire 1 ! RESET $end
$var wire 1 % VBN1 $end
$var wire 8 8 DATA [7:0] $end
$var reg 1 9 cmp $end
$var reg 8 : p_data [7:0] $end
$var real 1 ; adc $end
$var real 1 < lsb $end
$var real 1 = tmp $end
$var real 1 > v_erase $end
$upscope $end
$scope module ps01 $end
$var wire 1 * ERASE $end
$var wire 1 + EXPOSE $end
$var wire 1 $ RAMP $end
$var wire 1 . READ $end
$var wire 1 ! RESET $end
$var wire 1 % VBN1 $end
$var wire 8 ? DATA [7:0] $end
$var reg 1 @ cmp $end
$var reg 8 A p_data [7:0] $end
$var real 1 B adc $end
$var real 1 C lsb $end
$var real 1 D tmp $end
$var real 1 E v_erase $end
$upscope $end
$scope module ps10 $end
$var wire 1 * ERASE $end
$var wire 1 + EXPOSE $end
$var wire 1 $ RAMP $end
$var wire 1 . READ $end
$var wire 1 ! RESET $end
$var wire 1 % VBN1 $end
$var wire 8 F DATA [7:0] $end
$var reg 1 G cmp $end
$var reg 8 H p_data [7:0] $end
$var real 1 I adc $end
$var real 1 J lsb $end
$var real 1 K tmp $end
$var real 1 L v_erase $end
$upscope $end
$scope module ps11 $end
$var wire 1 * ERASE $end
$var wire 1 + EXPOSE $end
$var wire 1 $ RAMP $end
$var wire 1 . READ $end
$var wire 1 ! RESET $end
$var wire 1 % VBN1 $end
$var wire 8 M DATA [7:0] $end
$var reg 1 N cmp $end
$var reg 8 O p_data [7:0] $end
$var real 1 P adc $end
$var real 1 Q lsb $end
$var real 1 R tmp $end
$var real 1 S v_erase $end
$upscope $end
$upscope $end
$scope module ps1 $end
$var wire 8 T DATA [7:0] $end
$var wire 1 * ERASE $end
$var wire 1 + EXPOSE $end
$var wire 1 $ RAMP $end
$var wire 1 . READ $end
$var wire 1 ! RESET $end
$var wire 1 % VBN1 $end
$var reg 1 U cmp $end
$var reg 8 V p_data [7:0] $end
$var real 1 W adc $end
$var real 1 X lsb $end
$var real 1 Y tmp $end
$var real 1 Z v_erase $end
$upscope $end
$upscope $end
$enddefinitions $end
#500000
$dumpvars
r1.2 Z
r0 Y
r0.004705882352941176 X
r0 W
bx V
xU
bx T
r1.2 S
r0 R
r0.004705882352941176 Q
r0 P
bx O
xN
bx M
r1.2 L
r0 K
r0.004705882352941176 J
r0 I
bx H
xG
bx F
r1.2 E
r0 D
r0.004705882352941176 C
r0 B
bx A
x@
bx ?
r1.2 >
r0 =
r0.004705882352941176 <
r0 ;
bx :
x9
bx 8
b10 7
bx 6
b0 5
bz 4
b0 3
bx 2
b0 1
x0
0/
x.
b0 -
b0 ,
x+
x*
b0 )
0(
1'
bx &
x%
0$
bx #
bx "
1!
$end
#1000000
b10 6
b0 #
b0 T
bz 8
bz ?
bz F
bz M
0N
bz O
r1.2 R
0G
bz H
r1.2 K
0@
bz A
r1.2 D
09
bz :
r1.2 =
0U
b0 V
r1.2 Y
00
b0 2
0+
0.
1*
0%
0'
#1500000
b10 7
b1 3
1'
#2000000
0'
#2500000
b10 7
b10 3
1'
#3000000
0'
#3500000
b10 7
b11 3
1'
#4000000
0'
#4500000
b10 7
b100 3
1'
#5000000
0'
#5500000
b10 7
b101 3
1'
#6000000
0'
#6500000
b100 1
b1 ,
b10 7
b110 3
1'
#7000000
b0 :
b0 A
b0 H
b0 O
0*
0'
#7500000
b1 1
b10 7
b0 3
1'
#8000000
1+
0'
#8500000
r1.197647058823529 R
r1.197647058823529 K
r1.197647058823529 D
r1.197647058823529 =
r1.197647058823529 Y
1%
b10 7
b1 3
1'
#9000000
0%
0'
#9500000
r1.195294117647059 Y
r1.195294117647059 =
r1.195294117647059 D
r1.195294117647059 K
r1.195294117647059 R
1%
b10 7
b10 3
1'
#10000000
0%
0'
#10500000
r1.192941176470588 R
r1.192941176470588 K
r1.192941176470588 D
r1.192941176470588 =
r1.192941176470588 Y
1%
b10 7
b11 3
1'
#11000000
0%
0'
#11500000
r1.190588235294117 Y
r1.190588235294117 =
r1.190588235294117 D
r1.190588235294117 K
r1.190588235294117 R
1%
b10 7
b100 3
1'
#12000000
0%
0'
#12500000
r1.188235294117647 R
r1.188235294117647 K
r1.188235294117647 D
r1.188235294117647 =
r1.188235294117647 Y
1%
b10 7
b101 3
1'
#13000000
0%
0'
#13500000
r1.185882352941176 Y
r1.185882352941176 =
r1.185882352941176 D
r1.185882352941176 K
r1.185882352941176 R
1%
b10 7
b110 3
1'
#14000000
0%
0'
#14500000
r1.183529411764705 R
r1.183529411764705 K
r1.183529411764705 D
r1.183529411764705 =
r1.183529411764705 Y
1%
b10 7
b111 3
1'
#15000000
0%
0'
#15500000
r1.181176470588235 Y
r1.181176470588235 =
r1.181176470588235 D
r1.181176470588235 K
r1.181176470588235 R
1%
b10 7
b1000 3
1'
#16000000
0%
0'
#16500000
r1.178823529411764 R
r1.178823529411764 K
r1.178823529411764 D
r1.178823529411764 =
r1.178823529411764 Y
1%
b10 7
b1001 3
1'
#17000000
0%
0'
#17500000
r1.176470588235293 Y
r1.176470588235293 =
r1.176470588235293 D
r1.176470588235293 K
r1.176470588235293 R
1%
b10 7
b1010 3
1'
#18000000
0%
0'
#18500000
r1.174117647058823 R
r1.174117647058823 K
r1.174117647058823 D
r1.174117647058823 =
r1.174117647058823 Y
1%
b10 7
b1011 3
1'
#19000000
0%
0'
#19500000
r1.171764705882352 Y
r1.171764705882352 =
r1.171764705882352 D
r1.171764705882352 K
r1.171764705882352 R
1%
b10 7
b1100 3
1'
#20000000
0%
0'
#20500000
r1.169411764705881 R
r1.169411764705881 K
r1.169411764705881 D
r1.169411764705881 =
r1.169411764705881 Y
1%
b10 7
b1101 3
1'
#21000000
0%
0'
#21500000
r1.167058823529411 Y
r1.167058823529411 =
r1.167058823529411 D
r1.167058823529411 K
r1.167058823529411 R
1%
b10 7
b1110 3
1'
#22000000
0%
0'
#22500000
r1.16470588235294 R
r1.16470588235294 K
r1.16470588235294 D
r1.16470588235294 =
r1.16470588235294 Y
1%
b10 7
b1111 3
1'
#23000000
0%
0'
#23500000
r1.162352941176469 Y
r1.162352941176469 =
r1.162352941176469 D
r1.162352941176469 K
r1.162352941176469 R
1%
b10 7
b10000 3
1'
#24000000
0%
0'
#24500000
r1.159999999999999 R
r1.159999999999999 K
r1.159999999999999 D
r1.159999999999999 =
r1.159999999999999 Y
1%
b10 7
b10001 3
1'
#25000000
0%
0'
#25500000
r1.157647058823528 Y
r1.157647058823528 =
r1.157647058823528 D
r1.157647058823528 K
r1.157647058823528 R
1%
b10 7
b10010 3
1'
#26000000
0%
0'
#26500000
r1.155294117647057 R
r1.155294117647057 K
r1.155294117647057 D
r1.155294117647057 =
r1.155294117647057 Y
1%
b10 7
b10011 3
1'
#27000000
0%
0'
#27500000
r1.152941176470587 Y
r1.152941176470587 =
r1.152941176470587 D
r1.152941176470587 K
r1.152941176470587 R
1%
b10 7
b10100 3
1'
#28000000
0%
0'
#28500000
r1.150588235294116 R
r1.150588235294116 K
r1.150588235294116 D
r1.150588235294116 =
r1.150588235294116 Y
1%
b10 7
b10101 3
1'
#29000000
0%
0'
#29500000
r1.148235294117645 Y
r1.148235294117645 =
r1.148235294117645 D
r1.148235294117645 K
r1.148235294117645 R
1%
b10 7
b10110 3
1'
#30000000
0%
0'
#30500000
r1.145882352941175 R
r1.145882352941175 K
r1.145882352941175 D
r1.145882352941175 =
r1.145882352941175 Y
1%
b10 7
b10111 3
1'
#31000000
0%
0'
#31500000
r1.143529411764704 Y
r1.143529411764704 =
r1.143529411764704 D
r1.143529411764704 K
r1.143529411764704 R
1%
b10 7
b11000 3
1'
#32000000
0%
0'
#32500000
r1.141176470588233 R
r1.141176470588233 K
r1.141176470588233 D
r1.141176470588233 =
r1.141176470588233 Y
1%
b10 7
b11001 3
1'
#33000000
0%
0'
#33500000
r1.138823529411763 Y
r1.138823529411763 =
r1.138823529411763 D
r1.138823529411763 K
r1.138823529411763 R
1%
b10 7
b11010 3
1'
#34000000
0%
0'
#34500000
r1.136470588235292 R
r1.136470588235292 K
r1.136470588235292 D
r1.136470588235292 =
r1.136470588235292 Y
1%
b10 7
b11011 3
1'
#35000000
0%
0'
#35500000
r1.134117647058821 Y
r1.134117647058821 =
r1.134117647058821 D
r1.134117647058821 K
r1.134117647058821 R
1%
b10 7
b11100 3
1'
#36000000
0%
0'
#36500000
r1.131764705882351 R
r1.131764705882351 K
r1.131764705882351 D
r1.131764705882351 =
r1.131764705882351 Y
1%
b10 7
b11101 3
1'
#37000000
0%
0'
#37500000
r1.12941176470588 Y
r1.12941176470588 =
r1.12941176470588 D
r1.12941176470588 K
r1.12941176470588 R
1%
b10 7
b11110 3
1'
#38000000
0%
0'
#38500000
r1.127058823529409 R
r1.127058823529409 K
r1.127058823529409 D
r1.127058823529409 =
r1.127058823529409 Y
1%
b10 7
b11111 3
1'
#39000000
0%
0'
#39500000
r1.124705882352939 Y
r1.124705882352939 =
r1.124705882352939 D
r1.124705882352939 K
r1.124705882352939 R
1%
b10 7
b100000 3
1'
#40000000
0%
0'
#40500000
r1.122352941176468 R
r1.122352941176468 K
r1.122352941176468 D
r1.122352941176468 =
r1.122352941176468 Y
1%
b10 7
b100001 3
1'
#41000000
0%
0'
#41500000
r1.119999999999997 Y
r1.119999999999997 =
r1.119999999999997 D
r1.119999999999997 K
r1.119999999999997 R
1%
b10 7
b100010 3
1'
#42000000
0%
0'
#42500000
r1.117647058823527 R
r1.117647058823527 K
r1.117647058823527 D
r1.117647058823527 =
r1.117647058823527 Y
1%
b10 7
b100011 3
1'
#43000000
0%
0'
#43500000
r1.115294117647056 Y
r1.115294117647056 =
r1.115294117647056 D
r1.115294117647056 K
r1.115294117647056 R
1%
b10 7
b100100 3
1'
#44000000
0%
0'
#44500000
r1.112941176470585 R
r1.112941176470585 K
r1.112941176470585 D
r1.112941176470585 =
r1.112941176470585 Y
1%
b10 7
b100101 3
1'
#45000000
0%
0'
#45500000
r1.110588235294115 Y
r1.110588235294115 =
r1.110588235294115 D
r1.110588235294115 K
r1.110588235294115 R
1%
b10 7
b100110 3
1'
#46000000
0%
0'
#46500000
r1.108235294117644 R
r1.108235294117644 K
r1.108235294117644 D
r1.108235294117644 =
r1.108235294117644 Y
1%
b10 7
b100111 3
1'
#47000000
0%
0'
#47500000
r1.105882352941173 Y
r1.105882352941173 =
r1.105882352941173 D
r1.105882352941173 K
r1.105882352941173 R
1%
b10 7
b101000 3
1'
#48000000
0%
0'
#48500000
r1.103529411764703 R
r1.103529411764703 K
r1.103529411764703 D
r1.103529411764703 =
r1.103529411764703 Y
1%
b10 7
b101001 3
1'
#49000000
0%
0'
#49500000
r1.101176470588232 Y
r1.101176470588232 =
r1.101176470588232 D
r1.101176470588232 K
r1.101176470588232 R
1%
b10 7
b101010 3
1'
#50000000
0%
0'
#50500000
r1.098823529411761 R
r1.098823529411761 K
r1.098823529411761 D
r1.098823529411761 =
r1.098823529411761 Y
1%
b10 7
b101011 3
1'
#51000000
0%
0'
#51500000
r1.096470588235291 Y
r1.096470588235291 =
r1.096470588235291 D
r1.096470588235291 K
r1.096470588235291 R
1%
b10 7
b101100 3
1'
#52000000
0%
0'
#52500000
r1.09411764705882 R
r1.09411764705882 K
r1.09411764705882 D
r1.09411764705882 =
r1.09411764705882 Y
1%
b10 7
b101101 3
1'
#53000000
0%
0'
#53500000
r1.091764705882349 Y
r1.091764705882349 =
r1.091764705882349 D
r1.091764705882349 K
r1.091764705882349 R
1%
b10 7
b101110 3
1'
#54000000
0%
0'
#54500000
r1.089411764705879 R
r1.089411764705879 K
r1.089411764705879 D
r1.089411764705879 =
r1.089411764705879 Y
1%
b10 7
b101111 3
1'
#55000000
0%
0'
#55500000
r1.087058823529408 Y
r1.087058823529408 =
r1.087058823529408 D
r1.087058823529408 K
r1.087058823529408 R
1%
b10 7
b110000 3
1'
#56000000
0%
0'
#56500000
r1.084705882352937 R
r1.084705882352937 K
r1.084705882352937 D
r1.084705882352937 =
r1.084705882352937 Y
1%
b10 7
b110001 3
1'
#57000000
0%
0'
#57500000
r1.082352941176467 Y
r1.082352941176467 =
r1.082352941176467 D
r1.082352941176467 K
r1.082352941176467 R
1%
b10 7
b110010 3
1'
#58000000
0%
0'
#58500000
r1.079999999999996 R
r1.079999999999996 K
r1.079999999999996 D
r1.079999999999996 =
r1.079999999999996 Y
1%
b10 7
b110011 3
1'
#59000000
0%
0'
#59500000
r1.077647058823525 Y
r1.077647058823525 =
r1.077647058823525 D
r1.077647058823525 K
r1.077647058823525 R
1%
b10 7
b110100 3
1'
#60000000
0%
0'
#60500000
r1.075294117647055 R
r1.075294117647055 K
r1.075294117647055 D
r1.075294117647055 =
r1.075294117647055 Y
1%
b10 7
b110101 3
1'
#61000000
0%
0'
#61500000
r1.072941176470584 Y
r1.072941176470584 =
r1.072941176470584 D
r1.072941176470584 K
r1.072941176470584 R
1%
b10 7
b110110 3
1'
#62000000
0%
0'
#62500000
r1.070588235294113 R
r1.070588235294113 K
r1.070588235294113 D
r1.070588235294113 =
r1.070588235294113 Y
1%
b10 7
b110111 3
1'
#63000000
0%
0'
#63500000
r1.068235294117643 Y
r1.068235294117643 =
r1.068235294117643 D
r1.068235294117643 K
r1.068235294117643 R
1%
b10 7
b111000 3
1'
#64000000
0%
0'
#64500000
r1.065882352941172 R
r1.065882352941172 K
r1.065882352941172 D
r1.065882352941172 =
r1.065882352941172 Y
1%
b10 7
b111001 3
1'
#65000000
0%
0'
#65500000
r1.063529411764701 Y
r1.063529411764701 =
r1.063529411764701 D
r1.063529411764701 K
r1.063529411764701 R
1%
b10 7
b111010 3
1'
#66000000
0%
0'
#66500000
r1.061176470588231 R
r1.061176470588231 K
r1.061176470588231 D
r1.061176470588231 =
r1.061176470588231 Y
1%
b10 7
b111011 3
1'
#67000000
0%
0'
#67500000
r1.05882352941176 Y
r1.05882352941176 =
r1.05882352941176 D
r1.05882352941176 K
r1.05882352941176 R
1%
b10 7
b111100 3
1'
#68000000
0%
0'
#68500000
r1.056470588235289 R
r1.056470588235289 K
r1.056470588235289 D
r1.056470588235289 =
r1.056470588235289 Y
1%
b10 7
b111101 3
1'
#69000000
0%
0'
#69500000
r1.054117647058818 Y
r1.054117647058818 =
r1.054117647058818 D
r1.054117647058818 K
r1.054117647058818 R
1%
b10 7
b111110 3
1'
#70000000
0%
0'
#70500000
r1.051764705882348 R
r1.051764705882348 K
r1.051764705882348 D
r1.051764705882348 =
r1.051764705882348 Y
1%
b10 7
b111111 3
1'
#71000000
0%
0'
#71500000
r1.049411764705877 Y
r1.049411764705877 =
r1.049411764705877 D
r1.049411764705877 K
r1.049411764705877 R
1%
b10 7
b1000000 3
1'
#72000000
0%
0'
#72500000
r1.047058823529406 R
r1.047058823529406 K
r1.047058823529406 D
r1.047058823529406 =
r1.047058823529406 Y
1%
b10 7
b1000001 3
1'
#73000000
0%
0'
#73500000
r1.044705882352936 Y
r1.044705882352936 =
r1.044705882352936 D
r1.044705882352936 K
r1.044705882352936 R
1%
b10 7
b1000010 3
1'
#74000000
0%
0'
#74500000
r1.042352941176465 R
r1.042352941176465 K
r1.042352941176465 D
r1.042352941176465 =
r1.042352941176465 Y
1%
b10 7
b1000011 3
1'
#75000000
0%
0'
#75500000
r1.039999999999994 Y
r1.039999999999994 =
r1.039999999999994 D
r1.039999999999994 K
r1.039999999999994 R
1%
b10 7
b1000100 3
1'
#76000000
0%
0'
#76500000
r1.037647058823524 R
r1.037647058823524 K
r1.037647058823524 D
r1.037647058823524 =
r1.037647058823524 Y
1%
b10 7
b1000101 3
1'
#77000000
0%
0'
#77500000
r1.035294117647053 Y
r1.035294117647053 =
r1.035294117647053 D
r1.035294117647053 K
r1.035294117647053 R
1%
b10 7
b1000110 3
1'
#78000000
0%
0'
#78500000
r1.032941176470582 R
r1.032941176470582 K
r1.032941176470582 D
r1.032941176470582 =
r1.032941176470582 Y
1%
b10 7
b1000111 3
1'
#79000000
0%
0'
#79500000
r1.030588235294112 Y
r1.030588235294112 =
r1.030588235294112 D
r1.030588235294112 K
r1.030588235294112 R
1%
b10 7
b1001000 3
1'
#80000000
0%
0'
#80500000
r1.028235294117641 R
r1.028235294117641 K
r1.028235294117641 D
r1.028235294117641 =
r1.028235294117641 Y
1%
b10 7
b1001001 3
1'
#81000000
0%
0'
#81500000
r1.02588235294117 Y
r1.02588235294117 =
r1.02588235294117 D
r1.02588235294117 K
r1.02588235294117 R
1%
b10 7
b1001010 3
1'
#82000000
0%
0'
#82500000
r1.0235294117647 R
r1.0235294117647 K
r1.0235294117647 D
r1.0235294117647 =
r1.0235294117647 Y
1%
b10 7
b1001011 3
1'
#83000000
0%
0'
#83500000
r1.021176470588229 Y
r1.021176470588229 =
r1.021176470588229 D
r1.021176470588229 K
r1.021176470588229 R
1%
b10 7
b1001100 3
1'
#84000000
0%
0'
#84500000
r1.018823529411758 R
r1.018823529411758 K
r1.018823529411758 D
r1.018823529411758 =
r1.018823529411758 Y
1%
b10 7
b1001101 3
1'
#85000000
0%
0'
#85500000
r1.016470588235288 Y
r1.016470588235288 =
r1.016470588235288 D
r1.016470588235288 K
r1.016470588235288 R
1%
b10 7
b1001110 3
1'
#86000000
0%
0'
#86500000
r1.014117647058817 R
r1.014117647058817 K
r1.014117647058817 D
r1.014117647058817 =
r1.014117647058817 Y
1%
b10 7
b1001111 3
1'
#87000000
0%
0'
#87500000
r1.011764705882346 Y
r1.011764705882346 =
r1.011764705882346 D
r1.011764705882346 K
r1.011764705882346 R
1%
b10 7
b1010000 3
1'
#88000000
0%
0'
#88500000
r1.009411764705876 R
r1.009411764705876 K
r1.009411764705876 D
r1.009411764705876 =
r1.009411764705876 Y
1%
b10 7
b1010001 3
1'
#89000000
0%
0'
#89500000
r1.007058823529405 Y
r1.007058823529405 =
r1.007058823529405 D
r1.007058823529405 K
r1.007058823529405 R
1%
b10 7
b1010010 3
1'
#90000000
0%
0'
#90500000
r1.004705882352934 R
r1.004705882352934 K
r1.004705882352934 D
r1.004705882352934 =
r1.004705882352934 Y
1%
b10 7
b1010011 3
1'
#91000000
0%
0'
#91500000
r1.002352941176464 Y
r1.002352941176464 =
r1.002352941176464 D
r1.002352941176464 K
r1.002352941176464 R
1%
b10 7
b1010100 3
1'
#92000000
0%
0'
#92500000
r0.9999999999999932 R
r0.9999999999999932 K
r0.9999999999999932 D
r0.9999999999999932 =
r0.9999999999999932 Y
1%
b10 7
b1010101 3
1'
#93000000
0%
0'
#93500000
r0.9976470588235227 Y
r0.9976470588235227 =
r0.9976470588235227 D
r0.9976470588235227 K
r0.9976470588235227 R
1%
b10 7
b1010110 3
1'
#94000000
0%
0'
#94500000
r0.9952941176470521 R
r0.9952941176470521 K
r0.9952941176470521 D
r0.9952941176470521 =
r0.9952941176470521 Y
1%
b10 7
b1010111 3
1'
#95000000
0%
0'
#95500000
r0.9929411764705816 Y
r0.9929411764705816 =
r0.9929411764705816 D
r0.9929411764705816 K
r0.9929411764705816 R
1%
b10 7
b1011000 3
1'
#96000000
0%
0'
#96500000
r0.990588235294111 R
r0.990588235294111 K
r0.990588235294111 D
r0.990588235294111 =
r0.990588235294111 Y
1%
b10 7
b1011001 3
1'
#97000000
0%
0'
#97500000
r0.9882352941176404 Y
r0.9882352941176404 =
r0.9882352941176404 D
r0.9882352941176404 K
r0.9882352941176404 R
1%
b10 7
b1011010 3
1'
#98000000
0%
0'
#98500000
r0.9858823529411699 R
r0.9858823529411699 K
r0.9858823529411699 D
r0.9858823529411699 =
r0.9858823529411699 Y
1%
b10 7
b1011011 3
1'
#99000000
0%
0'
#99500000
r0.9835294117646993 Y
r0.9835294117646993 =
r0.9835294117646993 D
r0.9835294117646993 K
r0.9835294117646993 R
1%
b10 7
b1011100 3
1'
#100000000
0%
0'
#100500000
r0.9811764705882288 R
r0.9811764705882288 K
r0.9811764705882288 D
r0.9811764705882288 =
r0.9811764705882288 Y
1%
b10 7
b1011101 3
1'
#101000000
0%
0'
#101500000
r0.9788235294117582 Y
r0.9788235294117582 =
r0.9788235294117582 D
r0.9788235294117582 K
r0.9788235294117582 R
1%
b10 7
b1011110 3
1'
#102000000
0%
0'
#102500000
r0.9764705882352877 R
r0.9764705882352877 K
r0.9764705882352877 D
r0.9764705882352877 =
r0.9764705882352877 Y
1%
b10 7
b1011111 3
1'
#103000000
0%
0'
#103500000
r0.9741176470588171 Y
r0.9741176470588171 =
r0.9741176470588171 D
r0.9741176470588171 K
r0.9741176470588171 R
1%
b10 7
b1100000 3
1'
#104000000
0%
0'
#104500000
r0.9717647058823465 R
r0.9717647058823465 K
r0.9717647058823465 D
r0.9717647058823465 =
r0.9717647058823465 Y
1%
b10 7
b1100001 3
1'
#105000000
0%
0'
#105500000
r0.969411764705876 Y
r0.969411764705876 =
r0.969411764705876 D
r0.969411764705876 K
r0.969411764705876 R
1%
b10 7
b1100010 3
1'
#106000000
0%
0'
#106500000
r0.9670588235294054 R
r0.9670588235294054 K
r0.9670588235294054 D
r0.9670588235294054 =
r0.9670588235294054 Y
1%
b10 7
b1100011 3
1'
#107000000
0%
0'
#107500000
r0.9647058823529349 Y
r0.9647058823529349 =
r0.9647058823529349 D
r0.9647058823529349 K
r0.9647058823529349 R
1%
b10 7
b1100100 3
1'
#108000000
0%
0'
#108500000
r0.9623529411764643 R
r0.9623529411764643 K
r0.9623529411764643 D
r0.9623529411764643 =
r0.9623529411764643 Y
1%
b10 7
b1100101 3
1'
#109000000
0%
0'
#109500000
r0.9599999999999937 Y
r0.9599999999999937 =
r0.9599999999999937 D
r0.9599999999999937 K
r0.9599999999999937 R
1%
b10 7
b1100110 3
1'
#110000000
0%
0'
#110500000
r0.9576470588235232 R
r0.9576470588235232 K
r0.9576470588235232 D
r0.9576470588235232 =
r0.9576470588235232 Y
1%
b10 7
b1100111 3
1'
#111000000
0%
0'
#111500000
r0.9552941176470526 Y
r0.9552941176470526 =
r0.9552941176470526 D
r0.9552941176470526 K
r0.9552941176470526 R
1%
b10 7
b1101000 3
1'
#112000000
0%
0'
#112500000
r0.9529411764705821 R
r0.9529411764705821 K
r0.9529411764705821 D
r0.9529411764705821 =
r0.9529411764705821 Y
1%
b10 7
b1101001 3
1'
#113000000
0%
0'
#113500000
r0.9505882352941115 Y
r0.9505882352941115 =
r0.9505882352941115 D
r0.9505882352941115 K
r0.9505882352941115 R
1%
b10 7
b1101010 3
1'
#114000000
0%
0'
#114500000
r0.948235294117641 R
r0.948235294117641 K
r0.948235294117641 D
r0.948235294117641 =
r0.948235294117641 Y
1%
b10 7
b1101011 3
1'
#115000000
0%
0'
#115500000
r0.9458823529411704 Y
r0.9458823529411704 =
r0.9458823529411704 D
r0.9458823529411704 K
r0.9458823529411704 R
1%
b10 7
b1101100 3
1'
#116000000
0%
0'
#116500000
r0.9435294117646998 R
r0.9435294117646998 K
r0.9435294117646998 D
r0.9435294117646998 =
r0.9435294117646998 Y
1%
b10 7
b1101101 3
1'
#117000000
0%
0'
#117500000
r0.9411764705882293 Y
r0.9411764705882293 =
r0.9411764705882293 D
r0.9411764705882293 K
r0.9411764705882293 R
1%
b10 7
b1101110 3
1'
#118000000
0%
0'
#118500000
r0.9388235294117587 R
r0.9388235294117587 K
r0.9388235294117587 D
r0.9388235294117587 =
r0.9388235294117587 Y
1%
b10 7
b1101111 3
1'
#119000000
0%
0'
#119500000
r0.9364705882352882 Y
r0.9364705882352882 =
r0.9364705882352882 D
r0.9364705882352882 K
r0.9364705882352882 R
1%
b10 7
b1110000 3
1'
#120000000
0%
0'
#120500000
r0.9341176470588176 R
r0.9341176470588176 K
r0.9341176470588176 D
r0.9341176470588176 =
r0.9341176470588176 Y
1%
b10 7
b1110001 3
1'
#121000000
0%
0'
#121500000
r0.9317647058823471 Y
r0.9317647058823471 =
r0.9317647058823471 D
r0.9317647058823471 K
r0.9317647058823471 R
1%
b10 7
b1110010 3
1'
#122000000
0%
0'
#122500000
r0.9294117647058765 R
r0.9294117647058765 K
r0.9294117647058765 D
r0.9294117647058765 =
r0.9294117647058765 Y
1%
b10 7
b1110011 3
1'
#123000000
0%
0'
#123500000
r0.9270588235294059 Y
r0.9270588235294059 =
r0.9270588235294059 D
r0.9270588235294059 K
r0.9270588235294059 R
1%
b10 7
b1110100 3
1'
#124000000
0%
0'
#124500000
r0.9247058823529354 R
r0.9247058823529354 K
r0.9247058823529354 D
r0.9247058823529354 =
r0.9247058823529354 Y
1%
b10 7
b1110101 3
1'
#125000000
0%
0'
#125500000
r0.9223529411764648 Y
r0.9223529411764648 =
r0.9223529411764648 D
r0.9223529411764648 K
r0.9223529411764648 R
1%
b10 7
b1110110 3
1'
#126000000
0%
0'
#126500000
r0.9199999999999943 R
r0.9199999999999943 K
r0.9199999999999943 D
r0.9199999999999943 =
r0.9199999999999943 Y
1%
b10 7
b1110111 3
1'
#127000000
0%
0'
#127500000
r0.9176470588235237 Y
r0.9176470588235237 =
r0.9176470588235237 D
r0.9176470588235237 K
r0.9176470588235237 R
1%
b10 7
b1111000 3
1'
#128000000
0%
0'
#128500000
r0.9152941176470532 R
r0.9152941176470532 K
r0.9152941176470532 D
r0.9152941176470532 =
r0.9152941176470532 Y
1%
b10 7
b1111001 3
1'
#129000000
0%
0'
#129500000
r0.9129411764705826 Y
r0.9129411764705826 =
r0.9129411764705826 D
r0.9129411764705826 K
r0.9129411764705826 R
1%
b10 7
b1111010 3
1'
#130000000
0%
0'
#130500000
r0.910588235294112 R
r0.910588235294112 K
r0.910588235294112 D
r0.910588235294112 =
r0.910588235294112 Y
1%
b10 7
b1111011 3
1'
#131000000
0%
0'
#131500000
r0.9082352941176415 Y
r0.9082352941176415 =
r0.9082352941176415 D
r0.9082352941176415 K
r0.9082352941176415 R
1%
b10 7
b1111100 3
1'
#132000000
0%
0'
#132500000
r0.9058823529411709 R
r0.9058823529411709 K
r0.9058823529411709 D
r0.9058823529411709 =
r0.9058823529411709 Y
1%
b10 7
b1111101 3
1'
#133000000
0%
0'
#133500000
r0.9035294117647004 Y
r0.9035294117647004 =
r0.9035294117647004 D
r0.9035294117647004 K
r0.9035294117647004 R
1%
b10 7
b1111110 3
1'
#134000000
0%
0'
#134500000
r0.9011764705882298 R
r0.9011764705882298 K
r0.9011764705882298 D
r0.9011764705882298 =
r0.9011764705882298 Y
1%
b10 7
b1111111 3
1'
#135000000
0%
0'
#135500000
r0.8988235294117592 Y
r0.8988235294117592 =
r0.8988235294117592 D
r0.8988235294117592 K
r0.8988235294117592 R
1%
b10 7
b10000000 3
1'
#136000000
0%
0'
#136500000
r0.8964705882352887 R
r0.8964705882352887 K
r0.8964705882352887 D
r0.8964705882352887 =
r0.8964705882352887 Y
1%
b10 7
b10000001 3
1'
#137000000
0%
0'
#137500000
r0.8941176470588181 Y
r0.8941176470588181 =
r0.8941176470588181 D
r0.8941176470588181 K
r0.8941176470588181 R
1%
b10 7
b10000010 3
1'
#138000000
0%
0'
#138500000
r0.8917647058823476 R
r0.8917647058823476 K
r0.8917647058823476 D
r0.8917647058823476 =
r0.8917647058823476 Y
1%
b10 7
b10000011 3
1'
#139000000
0%
0'
#139500000
r0.889411764705877 Y
r0.889411764705877 =
r0.889411764705877 D
r0.889411764705877 K
r0.889411764705877 R
1%
b10 7
b10000100 3
1'
#140000000
0%
0'
#140500000
r0.8870588235294065 R
r0.8870588235294065 K
r0.8870588235294065 D
r0.8870588235294065 =
r0.8870588235294065 Y
1%
b10 7
b10000101 3
1'
#141000000
0%
0'
#141500000
r0.8847058823529359 Y
r0.8847058823529359 =
r0.8847058823529359 D
r0.8847058823529359 K
r0.8847058823529359 R
1%
b10 7
b10000110 3
1'
#142000000
0%
0'
#142500000
r0.8823529411764653 R
r0.8823529411764653 K
r0.8823529411764653 D
r0.8823529411764653 =
r0.8823529411764653 Y
1%
b10 7
b10000111 3
1'
#143000000
0%
0'
#143500000
r0.8799999999999948 Y
r0.8799999999999948 =
r0.8799999999999948 D
r0.8799999999999948 K
r0.8799999999999948 R
1%
b10 7
b10001000 3
1'
#144000000
0%
0'
#144500000
r0.8776470588235242 R
r0.8776470588235242 K
r0.8776470588235242 D
r0.8776470588235242 =
r0.8776470588235242 Y
1%
b10 7
b10001001 3
1'
#145000000
0%
0'
#145500000
r0.8752941176470537 Y
r0.8752941176470537 =
r0.8752941176470537 D
r0.8752941176470537 K
r0.8752941176470537 R
1%
b10 7
b10001010 3
1'
#146000000
0%
0'
