verilog/pixelArray_tb.vcd
$date
	Fri Nov 19 05:31:22 2021
$end
$version
	Icarus Verilog
$end
$timescale
	1ps
$end
$scope module pixelArray_tb $end
$var wire 1 ! anaReset $end
$var wire 8 " pixData [7:0] $end
$var wire 8 # out_data [7:0] $end
$var wire 1 $ anaRamp $end
$var wire 1 % anaBias1 $end
$var reg 1 & clk $end
$var reg 1 ' convert $end
$var reg 8 ( data [7:0] $end
$var reg 1 ) erase $end
$var reg 1 * expose $end
$var reg 3 + next_state [2:0] $end
$var reg 8 , pixelDataOut [7:0] $end
$var reg 1 - read $end
$var reg 1 . reset $end
$var reg 1 / row_pointer $end
$var reg 3 0 state [2:0] $end
$var reg 3 1 test [0:2] $end
$var integer 32 2 counter [31:0] $end
$scope module pa $end
$var wire 1 & clk $end
$var wire 1 ) erase $end
$var wire 1 * expose $end
$var wire 1 $ ramp $end
$var wire 1 - read $end
$var wire 1 ! reset $end
$var wire 1 / row_pointer $end
$var wire 1 % vbn1 $end
$var reg 8 3 out_data [7:0] $end
$var integer 32 4 c_column [31:0] $end
$var integer 32 5 i [31:0] $end
$var integer 32 6 k [31:0] $end
$scope module ps00 $end
$var wire 1 ) ERASE $end
$var wire 1 * EXPOSE $end
$var wire 1 $ RAMP $end
$var wire 1 - READ $end
$var wire 1 ! RESET $end
$var wire 1 % VBN1 $end
$var wire 2 7 test [0:1] $end
$var wire 8 8 DATA [7:0] $end
$var reg 1 9 cmp $end
$var reg 8 : p_data [7:0] $end
$var real 1 ; adc $end
$var real 1 < lsb $end
$var real 1 = tmp $end
$var real 1 > v_erase $end
$upscope $end
$scope module ps01 $end
$var wire 1 ) ERASE $end
$var wire 1 * EXPOSE $end
$var wire 1 $ RAMP $end
$var wire 1 - READ $end
$var wire 1 ! RESET $end
$var wire 1 % VBN1 $end
$var wire 2 ? test [0:1] $end
$var wire 8 @ DATA [7:0] $end
$var reg 1 A cmp $end
$var reg 8 B p_data [7:0] $end
$var real 1 C adc $end
$var real 1 D lsb $end
$var real 1 E tmp $end
$var real 1 F v_erase $end
$upscope $end
$scope module ps10 $end
$var wire 1 ) ERASE $end
$var wire 1 * EXPOSE $end
$var wire 1 $ RAMP $end
$var wire 1 - READ $end
$var wire 1 ! RESET $end
$var wire 1 % VBN1 $end
$var wire 2 G test [0:1] $end
$var wire 8 H DATA [7:0] $end
$var reg 1 I cmp $end
$var reg 8 J p_data [7:0] $end
$var real 1 K adc $end
$var real 1 L lsb $end
$var real 1 M tmp $end
$var real 1 N v_erase $end
$upscope $end
$scope module ps11 $end
$var wire 1 ) ERASE $end
$var wire 1 * EXPOSE $end
$var wire 1 $ RAMP $end
$var wire 1 - READ $end
$var wire 1 ! RESET $end
$var wire 1 % VBN1 $end
$var wire 2 O test [0:1] $end
$var wire 8 P DATA [7:0] $end
$var reg 1 Q cmp $end
$var reg 8 R p_data [7:0] $end
$var real 1 S adc $end
$var real 1 T lsb $end
$var real 1 U tmp $end
$var real 1 V v_erase $end
$upscope $end
$upscope $end
$scope module ps1 $end
$var wire 8 W DATA [7:0] $end
$var wire 1 ) ERASE $end
$var wire 1 * EXPOSE $end
$var wire 1 $ RAMP $end
$var wire 1 - READ $end
$var wire 1 ! RESET $end
$var wire 1 % VBN1 $end
$var wire 2 X test [0:1] $end
$var reg 1 Y cmp $end
$var reg 8 Z p_data [7:0] $end
$var real 1 [ adc $end
$var real 1 \ lsb $end
$var real 1 ] tmp $end
$var real 1 ^ v_erase $end
$upscope $end
$upscope $end
$enddefinitions $end
#500000
$dumpvars
r1.2 ^
r0 ]
r0.004705882352941176 \
r0 [
bx Z
xY
bx X
bx W
r1.2 V
r0 U
r0.004705882352941176 T
r0 S
bx R
xQ
bx P
b11 O
r1.2 N
r0 M
r0.004705882352941176 L
r0 K
bx J
xI
bx H
b10 G
r1.2 F
r0 E
r0.004705882352941176 D
r0 C
bx B
xA
bx @
b1 ?
r1.2 >
r0 =
r0.004705882352941176 <
r0 ;
bx :
x9
bx 8
b0 7
bx 6
bx 5
b0 4
bx 3
b0 2
bx 1
b0 0
x/
0.
x-
b0 ,
b0 +
x*
x)
b0 (
0'
1&
x%
0$
bx #
bx "
1!
$end
#1000000
b10 5
b0 "
b0 W
bz 8
bz @
bz H
bz P
0Q
bz R
r1.2 U
0I
bz J
r1.2 M
0A
bz B
r1.2 E
09
bz :
r1.2 =
0Y
b0 Z
r1.2 ]
z/
0*
0-
1)
0%
0&
#1500000
b1 2
1&
#2000000
0&
#2500000
b10 2
1&
#3000000
0&
#3500000
b11 2
1&
#4000000
0&
#4500000
b100 2
1&
#5000000
0&
#5500000
b101 2
1&
#6000000
0&
#6500000
b100 0
b1 +
b110 2
1&
#7000000
b0 :
b0 B
b0 J
b0 R
0)
0&
#7500000
b1 0
b0 2
1&
#8000000
1*
0&
#8500000
r1.197647058823529 U
r1.197647058823529 M
r1.197647058823529 E
r1.197647058823529 =
r1.197647058823529 ]
1%
b1 2
1&
#9000000
0%
0&
#9500000
r1.195294117647059 ]
r1.195294117647059 =
r1.195294117647059 E
r1.195294117647059 M
r1.195294117647059 U
1%
b10 2
1&
#10000000
0%
0&
#10500000
r1.192941176470588 U
r1.192941176470588 M
r1.192941176470588 E
r1.192941176470588 =
r1.192941176470588 ]
1%
b11 2
1&
#11000000
0%
0&
#11500000
r1.190588235294117 ]
r1.190588235294117 =
r1.190588235294117 E
r1.190588235294117 M
r1.190588235294117 U
1%
b100 2
1&
#12000000
0%
0&
#12500000
r1.188235294117647 U
r1.188235294117647 M
r1.188235294117647 E
r1.188235294117647 =
r1.188235294117647 ]
1%
b101 2
1&
#13000000
0%
0&
#13500000
r1.185882352941176 ]
r1.185882352941176 =
r1.185882352941176 E
r1.185882352941176 M
r1.185882352941176 U
1%
b110 2
1&
#14000000
0%
0&
#14500000
r1.183529411764705 U
r1.183529411764705 M
r1.183529411764705 E
r1.183529411764705 =
r1.183529411764705 ]
1%
b111 2
1&
#15000000
0%
0&
#15500000
r1.181176470588235 ]
r1.181176470588235 =
r1.181176470588235 E
r1.181176470588235 M
r1.181176470588235 U
1%
b1000 2
1&
#16000000
0%
0&
#16500000
r1.178823529411764 U
r1.178823529411764 M
r1.178823529411764 E
r1.178823529411764 =
r1.178823529411764 ]
1%
b1001 2
1&
#17000000
0%
0&
#17500000
r1.176470588235293 ]
r1.176470588235293 =
r1.176470588235293 E
r1.176470588235293 M
r1.176470588235293 U
1%
b1010 2
1&
#18000000
0%
0&
#18500000
r1.174117647058823 U
r1.174117647058823 M
r1.174117647058823 E
r1.174117647058823 =
r1.174117647058823 ]
1%
b1011 2
1&
#19000000
0%
0&
#19500000
r1.171764705882352 ]
r1.171764705882352 =
r1.171764705882352 E
r1.171764705882352 M
r1.171764705882352 U
1%
b1100 2
1&
#20000000
0%
0&
#20500000
r1.169411764705881 U
r1.169411764705881 M
r1.169411764705881 E
r1.169411764705881 =
r1.169411764705881 ]
1%
b1101 2
1&
#21000000
0%
0&
#21500000
r1.167058823529411 ]
r1.167058823529411 =
r1.167058823529411 E
r1.167058823529411 M
r1.167058823529411 U
1%
b1110 2
1&
#22000000
0%
0&
#22500000
r1.16470588235294 U
r1.16470588235294 M
r1.16470588235294 E
r1.16470588235294 =
r1.16470588235294 ]
1%
b1111 2
1&
#23000000
0%
0&
#23500000
r1.162352941176469 ]
r1.162352941176469 =
r1.162352941176469 E
r1.162352941176469 M
r1.162352941176469 U
1%
b10000 2
1&
#24000000
0%
0&
#24500000
r1.159999999999999 U
r1.159999999999999 M
r1.159999999999999 E
r1.159999999999999 =
r1.159999999999999 ]
1%
b10001 2
1&
#25000000
0%
0&
#25500000
r1.157647058823528 ]
r1.157647058823528 =
r1.157647058823528 E
r1.157647058823528 M
r1.157647058823528 U
1%
b10010 2
1&
#26000000
0%
0&
#26500000
r1.155294117647057 U
r1.155294117647057 M
r1.155294117647057 E
r1.155294117647057 =
r1.155294117647057 ]
1%
b10011 2
1&
#27000000
0%
0&
#27500000
r1.152941176470587 ]
r1.152941176470587 =
r1.152941176470587 E
r1.152941176470587 M
r1.152941176470587 U
1%
b10100 2
1&
#28000000
0%
0&
#28500000
r1.150588235294116 U
r1.150588235294116 M
r1.150588235294116 E
r1.150588235294116 =
r1.150588235294116 ]
1%
b10101 2
1&
#29000000
0%
0&
#29500000
r1.148235294117645 ]
r1.148235294117645 =
r1.148235294117645 E
r1.148235294117645 M
r1.148235294117645 U
1%
b10110 2
1&
#30000000
0%
0&
#30500000
r1.145882352941175 U
r1.145882352941175 M
r1.145882352941175 E
r1.145882352941175 =
r1.145882352941175 ]
1%
b10111 2
1&
#31000000
0%
0&
#31500000
r1.143529411764704 ]
r1.143529411764704 =
r1.143529411764704 E
r1.143529411764704 M
r1.143529411764704 U
1%
b11000 2
1&
#32000000
0%
0&
#32500000
r1.141176470588233 U
r1.141176470588233 M
r1.141176470588233 E
r1.141176470588233 =
r1.141176470588233 ]
1%
b11001 2
1&
#33000000
0%
0&
#33500000
r1.138823529411763 ]
r1.138823529411763 =
r1.138823529411763 E
r1.138823529411763 M
r1.138823529411763 U
1%
b11010 2
1&
#34000000
0%
0&
#34500000
r1.136470588235292 U
r1.136470588235292 M
r1.136470588235292 E
r1.136470588235292 =
r1.136470588235292 ]
1%
b11011 2
1&
#35000000
0%
0&
#35500000
r1.134117647058821 ]
r1.134117647058821 =
r1.134117647058821 E
r1.134117647058821 M
r1.134117647058821 U
1%
b11100 2
1&
#36000000
0%
0&
#36500000
r1.131764705882351 U
r1.131764705882351 M
r1.131764705882351 E
r1.131764705882351 =
r1.131764705882351 ]
1%
b11101 2
1&
#37000000
0%
0&
#37500000
r1.12941176470588 ]
r1.12941176470588 =
r1.12941176470588 E
r1.12941176470588 M
r1.12941176470588 U
1%
b11110 2
1&
#38000000
0%
0&
#38500000
r1.127058823529409 U
r1.127058823529409 M
r1.127058823529409 E
r1.127058823529409 =
r1.127058823529409 ]
1%
b11111 2
1&
#39000000
0%
0&
#39500000
r1.124705882352939 ]
r1.124705882352939 =
r1.124705882352939 E
r1.124705882352939 M
r1.124705882352939 U
1%
b100000 2
1&
#40000000
0%
0&
#40500000
r1.122352941176468 U
r1.122352941176468 M
r1.122352941176468 E
r1.122352941176468 =
r1.122352941176468 ]
1%
b100001 2
1&
#41000000
0%
0&
#41500000
r1.119999999999997 ]
r1.119999999999997 =
r1.119999999999997 E
r1.119999999999997 M
r1.119999999999997 U
1%
b100010 2
1&
#42000000
0%
0&
#42500000
r1.117647058823527 U
r1.117647058823527 M
r1.117647058823527 E
r1.117647058823527 =
r1.117647058823527 ]
1%
b100011 2
1&
#43000000
0%
0&
#43500000
r1.115294117647056 ]
r1.115294117647056 =
r1.115294117647056 E
r1.115294117647056 M
r1.115294117647056 U
1%
b100100 2
1&
#44000000
0%
0&
#44500000
r1.112941176470585 U
r1.112941176470585 M
r1.112941176470585 E
r1.112941176470585 =
r1.112941176470585 ]
1%
b100101 2
1&
#45000000
0%
0&
#45500000
r1.110588235294115 ]
r1.110588235294115 =
r1.110588235294115 E
r1.110588235294115 M
r1.110588235294115 U
1%
b100110 2
1&
#46000000
0%
0&
#46500000
r1.108235294117644 U
r1.108235294117644 M
r1.108235294117644 E
r1.108235294117644 =
r1.108235294117644 ]
1%
b100111 2
1&
#47000000
0%
0&
#47500000
r1.105882352941173 ]
r1.105882352941173 =
r1.105882352941173 E
r1.105882352941173 M
r1.105882352941173 U
1%
b101000 2
1&
#48000000
0%
0&
#48500000
r1.103529411764703 U
r1.103529411764703 M
r1.103529411764703 E
r1.103529411764703 =
r1.103529411764703 ]
1%
b101001 2
1&
#49000000
0%
0&
#49500000
r1.101176470588232 ]
r1.101176470588232 =
r1.101176470588232 E
r1.101176470588232 M
r1.101176470588232 U
1%
b101010 2
1&
#50000000
0%
0&
#50500000
r1.098823529411761 U
r1.098823529411761 M
r1.098823529411761 E
r1.098823529411761 =
r1.098823529411761 ]
1%
b101011 2
1&
#51000000
0%
0&
#51500000
r1.096470588235291 ]
r1.096470588235291 =
r1.096470588235291 E
r1.096470588235291 M
r1.096470588235291 U
1%
b101100 2
1&
#52000000
0%
0&
#52500000
r1.09411764705882 U
r1.09411764705882 M
r1.09411764705882 E
r1.09411764705882 =
r1.09411764705882 ]
1%
b101101 2
1&
#53000000
0%
0&
#53500000
r1.091764705882349 ]
r1.091764705882349 =
r1.091764705882349 E
r1.091764705882349 M
r1.091764705882349 U
1%
b101110 2
1&
#54000000
0%
0&
#54500000
r1.089411764705879 U
r1.089411764705879 M
r1.089411764705879 E
r1.089411764705879 =
r1.089411764705879 ]
1%
b101111 2
1&
#55000000
0%
0&
#55500000
r1.087058823529408 ]
r1.087058823529408 =
r1.087058823529408 E
r1.087058823529408 M
r1.087058823529408 U
1%
b110000 2
1&
#56000000
0%
0&
#56500000
r1.084705882352937 U
r1.084705882352937 M
r1.084705882352937 E
r1.084705882352937 =
r1.084705882352937 ]
1%
b110001 2
1&
#57000000
0%
0&
#57500000
r1.082352941176467 ]
r1.082352941176467 =
r1.082352941176467 E
r1.082352941176467 M
r1.082352941176467 U
1%
b110010 2
1&
#58000000
0%
0&
#58500000
r1.079999999999996 U
r1.079999999999996 M
r1.079999999999996 E
r1.079999999999996 =
r1.079999999999996 ]
1%
b110011 2
1&
#59000000
0%
0&
#59500000
r1.077647058823525 ]
r1.077647058823525 =
r1.077647058823525 E
r1.077647058823525 M
r1.077647058823525 U
1%
b110100 2
1&
#60000000
0%
0&
#60500000
r1.075294117647055 U
r1.075294117647055 M
r1.075294117647055 E
r1.075294117647055 =
r1.075294117647055 ]
1%
b110101 2
1&
#61000000
0%
0&
#61500000
r1.072941176470584 ]
r1.072941176470584 =
r1.072941176470584 E
r1.072941176470584 M
r1.072941176470584 U
1%
b110110 2
1&
#62000000
0%
0&
#62500000
r1.070588235294113 U
r1.070588235294113 M
r1.070588235294113 E
r1.070588235294113 =
r1.070588235294113 ]
1%
b110111 2
1&
#63000000
0%
0&
#63500000
r1.068235294117643 ]
r1.068235294117643 =
r1.068235294117643 E
r1.068235294117643 M
r1.068235294117643 U
1%
b111000 2
1&
#64000000
0%
0&
#64500000
r1.065882352941172 U
r1.065882352941172 M
r1.065882352941172 E
r1.065882352941172 =
r1.065882352941172 ]
1%
b111001 2
1&
#65000000
0%
0&
#65500000
r1.063529411764701 ]
r1.063529411764701 =
r1.063529411764701 E
r1.063529411764701 M
r1.063529411764701 U
1%
b111010 2
1&
#66000000
0%
0&
#66500000
r1.061176470588231 U
r1.061176470588231 M
r1.061176470588231 E
r1.061176470588231 =
r1.061176470588231 ]
1%
b111011 2
1&
#67000000
0%
0&
#67500000
r1.05882352941176 ]
r1.05882352941176 =
r1.05882352941176 E
r1.05882352941176 M
r1.05882352941176 U
1%
b111100 2
1&
#68000000
0%
0&
#68500000
r1.056470588235289 U
r1.056470588235289 M
r1.056470588235289 E
r1.056470588235289 =
r1.056470588235289 ]
1%
b111101 2
1&
#69000000
0%
0&
#69500000
r1.054117647058818 ]
r1.054117647058818 =
r1.054117647058818 E
r1.054117647058818 M
r1.054117647058818 U
1%
b111110 2
1&
#70000000
0%
0&
#70500000
r1.051764705882348 U
r1.051764705882348 M
r1.051764705882348 E
r1.051764705882348 =
r1.051764705882348 ]
1%
b111111 2
1&
#71000000
0%
0&
#71500000
r1.049411764705877 ]
r1.049411764705877 =
r1.049411764705877 E
r1.049411764705877 M
r1.049411764705877 U
1%
b1000000 2
1&
#72000000
0%
0&
#72500000
r1.047058823529406 U
r1.047058823529406 M
r1.047058823529406 E
r1.047058823529406 =
r1.047058823529406 ]
1%
b1000001 2
1&
#73000000
0%
0&
#73500000
r1.044705882352936 ]
r1.044705882352936 =
r1.044705882352936 E
r1.044705882352936 M
r1.044705882352936 U
1%
b1000010 2
1&
#74000000
0%
0&
#74500000
r1.042352941176465 U
r1.042352941176465 M
r1.042352941176465 E
r1.042352941176465 =
r1.042352941176465 ]
1%
b1000011 2
1&
#75000000
0%
0&
#75500000
r1.039999999999994 ]
r1.039999999999994 =
r1.039999999999994 E
r1.039999999999994 M
r1.039999999999994 U
1%
b1000100 2
1&
#76000000
0%
0&
#76500000
r1.037647058823524 U
r1.037647058823524 M
r1.037647058823524 E
r1.037647058823524 =
r1.037647058823524 ]
1%
b1000101 2
1&
#77000000
0%
0&
#77500000
r1.035294117647053 ]
r1.035294117647053 =
r1.035294117647053 E
r1.035294117647053 M
r1.035294117647053 U
1%
b1000110 2
1&
#78000000
0%
0&
#78500000
r1.032941176470582 U
r1.032941176470582 M
r1.032941176470582 E
r1.032941176470582 =
r1.032941176470582 ]
1%
b1000111 2
1&
#79000000
0%
0&
#79500000
r1.030588235294112 ]
r1.030588235294112 =
r1.030588235294112 E
r1.030588235294112 M
r1.030588235294112 U
1%
b1001000 2
1&
#80000000
0%
0&
#80500000
r1.028235294117641 U
r1.028235294117641 M
r1.028235294117641 E
r1.028235294117641 =
r1.028235294117641 ]
1%
b1001001 2
1&
#81000000
0%
0&
#81500000
r1.02588235294117 ]
r1.02588235294117 =
r1.02588235294117 E
r1.02588235294117 M
r1.02588235294117 U
1%
b1001010 2
1&
#82000000
0%
0&
#82500000
r1.0235294117647 U
r1.0235294117647 M
r1.0235294117647 E
r1.0235294117647 =
r1.0235294117647 ]
1%
b1001011 2
1&
#83000000
0%
0&
#83500000
r1.021176470588229 ]
r1.021176470588229 =
r1.021176470588229 E
r1.021176470588229 M
r1.021176470588229 U
1%
b1001100 2
1&
#84000000
0%
0&
#84500000
r1.018823529411758 U
r1.018823529411758 M
r1.018823529411758 E
r1.018823529411758 =
r1.018823529411758 ]
1%
b1001101 2
1&
#85000000
0%
0&
#85500000
r1.016470588235288 ]
r1.016470588235288 =
r1.016470588235288 E
r1.016470588235288 M
r1.016470588235288 U
1%
b1001110 2
1&
#86000000
0%
0&
#86500000
r1.014117647058817 U
r1.014117647058817 M
r1.014117647058817 E
r1.014117647058817 =
r1.014117647058817 ]
1%
b1001111 2
1&
#87000000
0%
0&
#87500000
r1.011764705882346 ]
r1.011764705882346 =
r1.011764705882346 E
r1.011764705882346 M
r1.011764705882346 U
1%
b1010000 2
1&
#88000000
0%
0&
#88500000
r1.009411764705876 U
r1.009411764705876 M
r1.009411764705876 E
r1.009411764705876 =
r1.009411764705876 ]
1%
b1010001 2
1&
#89000000
0%
0&
#89500000
r1.007058823529405 ]
r1.007058823529405 =
r1.007058823529405 E
r1.007058823529405 M
r1.007058823529405 U
1%
b1010010 2
1&
#90000000
0%
0&
#90500000
r1.004705882352934 U
r1.004705882352934 M
r1.004705882352934 E
r1.004705882352934 =
r1.004705882352934 ]
1%
b1010011 2
1&
#91000000
0%
0&
#91500000
r1.002352941176464 ]
r1.002352941176464 =
r1.002352941176464 E
r1.002352941176464 M
r1.002352941176464 U
1%
b1010100 2
1&
#92000000
0%
0&
#92500000
r0.9999999999999932 U
r0.9999999999999932 M
r0.9999999999999932 E
r0.9999999999999932 =
r0.9999999999999932 ]
1%
b1010101 2
1&
#93000000
0%
0&
#93500000
r0.9976470588235227 ]
r0.9976470588235227 =
r0.9976470588235227 E
r0.9976470588235227 M
r0.9976470588235227 U
1%
b1010110 2
1&
#94000000
0%
0&
#94500000
r0.9952941176470521 U
r0.9952941176470521 M
r0.9952941176470521 E
r0.9952941176470521 =
r0.9952941176470521 ]
1%
b1010111 2
1&
#95000000
0%
0&
#95500000
r0.9929411764705816 ]
r0.9929411764705816 =
r0.9929411764705816 E
r0.9929411764705816 M
r0.9929411764705816 U
1%
b1011000 2
1&
#96000000
0%
0&
#96500000
r0.990588235294111 U
r0.990588235294111 M
r0.990588235294111 E
r0.990588235294111 =
r0.990588235294111 ]
1%
b1011001 2
1&
#97000000
0%
0&
#97500000
r0.9882352941176404 ]
r0.9882352941176404 =
r0.9882352941176404 E
r0.9882352941176404 M
r0.9882352941176404 U
1%
b1011010 2
1&
#98000000
0%
0&
#98500000
r0.9858823529411699 U
r0.9858823529411699 M
r0.9858823529411699 E
r0.9858823529411699 =
r0.9858823529411699 ]
1%
b1011011 2
1&
#99000000
0%
0&
#99500000
r0.9835294117646993 ]
r0.9835294117646993 =
r0.9835294117646993 E
r0.9835294117646993 M
r0.9835294117646993 U
1%
b1011100 2
1&
#100000000
0%
0&
#100500000
r0.9811764705882288 U
r0.9811764705882288 M
r0.9811764705882288 E
r0.9811764705882288 =
r0.9811764705882288 ]
1%
b1011101 2
1&
#101000000
0%
0&
#101500000
r0.9788235294117582 ]
r0.9788235294117582 =
r0.9788235294117582 E
r0.9788235294117582 M
r0.9788235294117582 U
1%
b1011110 2
1&
#102000000
0%
0&
#102500000
r0.9764705882352877 U
r0.9764705882352877 M
r0.9764705882352877 E
r0.9764705882352877 =
r0.9764705882352877 ]
1%
b1011111 2
1&
#103000000
0%
0&
#103500000
r0.9741176470588171 ]
r0.9741176470588171 =
r0.9741176470588171 E
r0.9741176470588171 M
r0.9741176470588171 U
1%
b1100000 2
1&
#104000000
0%
0&
#104500000
r0.9717647058823465 U
r0.9717647058823465 M
r0.9717647058823465 E
r0.9717647058823465 =
r0.9717647058823465 ]
1%
b1100001 2
1&
#105000000
0%
0&
#105500000
r0.969411764705876 ]
r0.969411764705876 =
r0.969411764705876 E
r0.969411764705876 M
r0.969411764705876 U
1%
b1100010 2
1&
#106000000
0%
0&
#106500000
r0.9670588235294054 U
r0.9670588235294054 M
r0.9670588235294054 E
r0.9670588235294054 =
r0.9670588235294054 ]
1%
b1100011 2
1&
#107000000
0%
0&
#107500000
r0.9647058823529349 ]
r0.9647058823529349 =
r0.9647058823529349 E
r0.9647058823529349 M
r0.9647058823529349 U
1%
b1100100 2
1&
#108000000
0%
0&
#108500000
r0.9623529411764643 U
r0.9623529411764643 M
r0.9623529411764643 E
r0.9623529411764643 =
r0.9623529411764643 ]
1%
b1100101 2
1&
#109000000
0%
0&
#109500000
r0.9599999999999937 ]
r0.9599999999999937 =
r0.9599999999999937 E
r0.9599999999999937 M
r0.9599999999999937 U
1%
b1100110 2
1&
#110000000
0%
0&
#110500000
r0.9576470588235232 U
r0.9576470588235232 M
r0.9576470588235232 E
r0.9576470588235232 =
r0.9576470588235232 ]
1%
b1100111 2
1&
#111000000
0%
0&
#111500000
r0.9552941176470526 ]
r0.9552941176470526 =
r0.9552941176470526 E
r0.9552941176470526 M
r0.9552941176470526 U
1%
b1101000 2
1&
#112000000
0%
0&
#112500000
r0.9529411764705821 U
r0.9529411764705821 M
r0.9529411764705821 E
r0.9529411764705821 =
r0.9529411764705821 ]
1%
b1101001 2
1&
#113000000
0%
0&
#113500000
r0.9505882352941115 ]
r0.9505882352941115 =
r0.9505882352941115 E
r0.9505882352941115 M
r0.9505882352941115 U
1%
b1101010 2
1&
#114000000
0%
0&
#114500000
r0.948235294117641 U
r0.948235294117641 M
r0.948235294117641 E
r0.948235294117641 =
r0.948235294117641 ]
1%
b1101011 2
1&
#115000000
0%
0&
#115500000
r0.9458823529411704 ]
r0.9458823529411704 =
r0.9458823529411704 E
r0.9458823529411704 M
r0.9458823529411704 U
1%
b1101100 2
1&
#116000000
0%
0&
#116500000
r0.9435294117646998 U
r0.9435294117646998 M
r0.9435294117646998 E
r0.9435294117646998 =
r0.9435294117646998 ]
1%
b1101101 2
1&
#117000000
0%
0&
#117500000
r0.9411764705882293 ]
r0.9411764705882293 =
r0.9411764705882293 E
r0.9411764705882293 M
r0.9411764705882293 U
1%
b1101110 2
1&
#118000000
0%
0&
#118500000
r0.9388235294117587 U
r0.9388235294117587 M
r0.9388235294117587 E
r0.9388235294117587 =
r0.9388235294117587 ]
1%
b1101111 2
1&
#119000000
0%
0&
#119500000
r0.9364705882352882 ]
r0.9364705882352882 =
r0.9364705882352882 E
r0.9364705882352882 M
r0.9364705882352882 U
1%
b1110000 2
1&
#120000000
0%
0&
#120500000
r0.9341176470588176 U
r0.9341176470588176 M
r0.9341176470588176 E
r0.9341176470588176 =
r0.9341176470588176 ]
1%
b1110001 2
1&
#121000000
0%
0&
#121500000
r0.9317647058823471 ]
r0.9317647058823471 =
r0.9317647058823471 E
r0.9317647058823471 M
r0.9317647058823471 U
1%
b1110010 2
1&
#122000000
0%
0&
#122500000
r0.9294117647058765 U
r0.9294117647058765 M
r0.9294117647058765 E
r0.9294117647058765 =
r0.9294117647058765 ]
1%
b1110011 2
1&
#123000000
0%
0&
#123500000
r0.9270588235294059 ]
r0.9270588235294059 =
r0.9270588235294059 E
r0.9270588235294059 M
r0.9270588235294059 U
1%
b1110100 2
1&
#124000000
0%
0&
#124500000
r0.9247058823529354 U
r0.9247058823529354 M
r0.9247058823529354 E
r0.9247058823529354 =
r0.9247058823529354 ]
1%
b1110101 2
1&
#125000000
0%
0&
#125500000
r0.9223529411764648 ]
r0.9223529411764648 =
r0.9223529411764648 E
r0.9223529411764648 M
r0.9223529411764648 U
1%
b1110110 2
1&
#126000000
0%
0&
#126500000
r0.9199999999999943 U
r0.9199999999999943 M
r0.9199999999999943 E
r0.9199999999999943 =
r0.9199999999999943 ]
1%
b1110111 2
1&
#127000000
0%
0&
#127500000
r0.9176470588235237 ]
r0.9176470588235237 =
r0.9176470588235237 E
r0.9176470588235237 M
r0.9176470588235237 U
1%
b1111000 2
1&
#128000000
0%
0&
#128500000
r0.9152941176470532 U
r0.9152941176470532 M
r0.9152941176470532 E
r0.9152941176470532 =
r0.9152941176470532 ]
1%
b1111001 2
1&
#129000000
0%
0&
#129500000
r0.9129411764705826 ]
r0.9129411764705826 =
r0.9129411764705826 E
r0.9129411764705826 M
r0.9129411764705826 U
1%
b1111010 2
1&
#130000000
0%
0&
#130500000
r0.910588235294112 U
r0.910588235294112 M
r0.910588235294112 E
r0.910588235294112 =
r0.910588235294112 ]
1%
b1111011 2
1&
#131000000
0%
0&
#131500000
r0.9082352941176415 ]
r0.9082352941176415 =
r0.9082352941176415 E
r0.9082352941176415 M
r0.9082352941176415 U
1%
b1111100 2
1&
#132000000
0%
0&
#132500000
r0.9058823529411709 U
r0.9058823529411709 M
r0.9058823529411709 E
r0.9058823529411709 =
r0.9058823529411709 ]
1%
b1111101 2
1&
#133000000
0%
0&
#133500000
r0.9035294117647004 ]
r0.9035294117647004 =
r0.9035294117647004 E
r0.9035294117647004 M
r0.9035294117647004 U
1%
b1111110 2
1&
#134000000
0%
0&
#134500000
r0.9011764705882298 U
r0.9011764705882298 M
r0.9011764705882298 E
r0.9011764705882298 =
r0.9011764705882298 ]
1%
b1111111 2
1&
#135000000
0%
0&
#135500000
r0.8988235294117592 ]
r0.8988235294117592 =
r0.8988235294117592 E
r0.8988235294117592 M
r0.8988235294117592 U
1%
b10000000 2
1&
#136000000
0%
0&
#136500000
r0.8964705882352887 U
r0.8964705882352887 M
r0.8964705882352887 E
r0.8964705882352887 =
r0.8964705882352887 ]
1%
b10000001 2
1&
#137000000
0%
0&
#137500000
r0.8941176470588181 ]
r0.8941176470588181 =
r0.8941176470588181 E
r0.8941176470588181 M
r0.8941176470588181 U
1%
b10000010 2
1&
#138000000
0%
0&
#138500000
r0.8917647058823476 U
r0.8917647058823476 M
r0.8917647058823476 E
r0.8917647058823476 =
r0.8917647058823476 ]
1%
b10000011 2
1&
#139000000
0%
0&
#139500000
r0.889411764705877 ]
r0.889411764705877 =
r0.889411764705877 E
r0.889411764705877 M
r0.889411764705877 U
1%
b10000100 2
1&
#140000000
0%
0&
#140500000
r0.8870588235294065 U
r0.8870588235294065 M
r0.8870588235294065 E
r0.8870588235294065 =
r0.8870588235294065 ]
1%
b10000101 2
1&
#141000000
0%
0&
#141500000
r0.8847058823529359 ]
r0.8847058823529359 =
r0.8847058823529359 E
r0.8847058823529359 M
r0.8847058823529359 U
1%
b10000110 2
1&
#142000000
0%
0&
#142500000
r0.8823529411764653 U
r0.8823529411764653 M
r0.8823529411764653 E
r0.8823529411764653 =
r0.8823529411764653 ]
1%
b10000111 2
1&
#143000000
0%
0&
#143500000
r0.8799999999999948 ]
r0.8799999999999948 =
r0.8799999999999948 E
r0.8799999999999948 M
r0.8799999999999948 U
1%
b10001000 2
1&
#144000000
0%
0&
#144500000
r0.8776470588235242 U
r0.8776470588235242 M
r0.8776470588235242 E
r0.8776470588235242 =
r0.8776470588235242 ]
1%
b10001001 2
1&
#145000000
0%
0&
#145500000
r0.8752941176470537 ]
r0.8752941176470537 =
r0.8752941176470537 E
r0.8752941176470537 M
r0.8752941176470537 U
1%
b10001010 2
1&
#146000000
0%
0&
#146500000
r0.8729411764705831 U
r0.8729411764705831 M
r0.8729411764705831 E
r0.8729411764705831 =
r0.8729411764705831 ]
1%
b10001011 2
1&
#147000000
0%
0&
#147500000
r0.8705882352941126 ]
r0.8705882352941126 =
r0.8705882352941126 E
r0.8705882352941126 M
r0.8705882352941126 U
1%
b10001100 2
1&
#148000000
0%
0&
#148500000
r0.868235294117642 U
r0.868235294117642 M
r0.868235294117642 E
r0.868235294117642 =
r0.868235294117642 ]
1%
b10001101 2
1&
#149000000
0%
0&
#149500000
r0.8658823529411714 ]
r0.8658823529411714 =
r0.8658823529411714 E
r0.8658823529411714 M
r0.8658823529411714 U
1%
b10001110 2
1&
#150000000
0%
0&
#150500000
r0.8635294117647009 U
r0.8635294117647009 M
r0.8635294117647009 E
r0.8635294117647009 =
r0.8635294117647009 ]
1%
b10001111 2
1&
#151000000
0%
0&
#151500000
r0.8611764705882303 ]
r0.8611764705882303 =
r0.8611764705882303 E
r0.8611764705882303 M
r0.8611764705882303 U
1%
b10010000 2
1&
#152000000
0%
0&
#152500000
r0.8588235294117598 U
r0.8588235294117598 M
r0.8588235294117598 E
r0.8588235294117598 =
r0.8588235294117598 ]
1%
b10010001 2
1&
#153000000
0%
0&
